00000000 .text
0000071c .rodata
00000770 .eh_frame
00000a40 .bss
00000000 .comment
00000000 .debug_aranges
00000000 .debug_info
00000000 .debug_abbrev
00000000 .debug_line
00000000 .debug_str
00000000 .debug_loc
00000000 wc.c
00000000 ulib.c
00000000 printf.c
000003c9 putc
000003e3 printint
0000075c digits.1058
00000000 umalloc.c
00000a40 freep
0000063c morecore
00000a44 base
00000164 strcpy
00000391 yield
00000463 printf
000002bf memmove
00000339 mknod
000001fa gets
00000371 getpid
0000068c malloc
00000381 sleep
000003b9 getprocessesinfo
00000301 pipe
000003c1 dumppagetable
00000311 write
00000349 fstat
00000321 kill
000003a1 writecount
000003a9 setwritecount
00000361 chdir
00000329 exec
000002f9 wait
00000309 read
00000341 unlink
00000000 wc
000002e9 fork
00000379 sbrk
00000389 uptime
000003b1 settickets
00000a30 __bss_start
000001c2 memset
000000d1 main
00000182 strcmp
00000399 shutdown
00000369 dup
00000a60 buf
0000024f stat
00000a30 _edata
00000c60 _end
00000351 link
000002f1 exit
00000293 atoi
000001a8 strlen
00000331 open
000001d9 strchr
00000359 mkdir
00000319 close
000005cc free
